<svg xmlns="http://www.w3.org/2000/svg" width="508" height="450" viewBox="0 0 508 450">
  <g id="Group_36" data-name="Group 36" transform="translate(-209 -198)">
    <text id="بيع_وشراء" data-name="بيع وشراء" transform="translate(717 281)" fill="#fff" font-size="90" font-family="GEDinarOne-Medium, GE Dinar One" font-weight="500"><tspan x="-351.99" y="0">بيع وشراء</tspan></text>
    <text id="منتجات" transform="translate(717 391)" fill="#fff" font-size="90" font-family="GEDinarOne-Medium, GE Dinar One" font-weight="500"><tspan x="-275.04" y="0">منتجات</tspan></text>
    <text id="إعلانات_وفرص" data-name="إعلانات وفرص" transform="translate(717 611)" fill="#fff" font-size="90" font-family="GEDinarOne-Medium, GE Dinar One" font-weight="500"><tspan x="-507.96" y="0">إعلانات وفرص</tspan></text>
    <text id="خدمات" transform="translate(717 501)" fill="#fff" font-size="90" font-family="GEDinarOne-Medium, GE Dinar One" font-weight="500"><tspan x="-248.22" y="0">خدمات</tspan></text>
  </g>
</svg>

